5 Minute Tutorials: Using Protocol Buffers in R
…
To work with the data more easily, convert it to JSON:

gtfs_feed_json = gtfs_feed$toJSON()
gtfs_feed_json = jsonlite::fromJSON(gtfs_feed_json, simplifyVector = FALSE)

Now, let’s extract and inspect the entities in the feed:

gtfs_feed_json %>% 
  .[['entity']] %>% 
  enframe() %>% 
  unnest_wider(value) %>% 
  unnest_wider(tripUpdate)

## # A tibble: 185 × 6
##     name id                   trip         stopTimeUpdate vehicle      timestamp
##    <int> <chr>                <list>       <list>         <list>       <chr>    
##  1     1 1738176218_12867957… <named list> <list [11]>    <named list> 17381761…
##  2     2 1738176218_12867959… <named list> <list [32]>    <NULL>       <NA>     
##  3     3 1738176218_12867985… <named list> <list [34]>    <NULL>       <NA>     
##  4     4 1738176218_12868024… <named list> <list [32]>    <named list> 17381761…
##  5     5 1738176218_12868028… <named list> <list [27]>    <named list> 17381761…
##  6     6 1738176218_12868029… <named list> <list [34]>    <NULL>       <NA>     
##  7     7 1738176218_12867622… <named list> <list [26]>    <NULL>       <NA>     
##  8     8 1738176218_12867623… <named list> <list [2]>     <NULL>       <NA>     
##  9     9 1738176218_12867624… <named list> <list [26]>    <named list> 17381761…
## 10    10 1738176218_12867664… <named list> <list [27]>    <named list> 17381761…
## # ℹ 175 more rows
…
