5 Minute Tutorials: Tricks with Purrr::map() #1
…
The actual tutorial

So this is what my dataframe of files looks like…

I hashed my files - randomly coded them - since they are sensitive:

Yours should be something to the effect of code folder script.R. And it doesn’t matter how deep your folder tree goes.

print(temp_data_public)

## # A tibble: 34 x 2
##    paths    file_name
##    <chr>    <chr>    
##  1 77153098 0de5fce9 
##  2 77153098 725b41a5 
##  3 77153098 bf6c1f1f 
##  4 01e4bef1 48d12269 
##  5 7580e145 e308db7c 
##  6 25e8962b c5387cc9 
##  7 25e8962b 5e135a29 
##  8 25e8962b 35ed1bd3 
##  9 25e8962b eee54f9a 
## 10 25e8962b ae7dbbcc 
## # i 24 more rows
…
And now we apply this to each record of our DF.

example_df = temp_data %>% 
  mutate(file_info = here::here(
    full_string_to_root
    ,temp_data$paths
    ,temp_data$file_name) %>% 
      file.info())

Take a look at what we just made:

## # A tibble: 34 x 3
##    paths    file_name file_info$size $isdir $mode     $mtime             
##    <chr>    <chr>              <dbl> <lgl>  <octmode> <dttm>             
##  1 77153098 0de5fce9            8621 FALSE  666       2023-08-10 10:47:50
##  2 77153098 725b41a5           27857 FALSE  666       2023-06-02 16:12:40
##  3 77153098 bf6c1f1f           12975 FALSE  666       2023-10-13 10:22:41
##  4 01e4bef1 48d12269           11259 FALSE  666       2023-10-11 15:48:19
##  5 7580e145 e308db7c            9891 FALSE  666       2023-03-16 10:23:23
##  6 25e8962b c5387cc9           11155 FALSE  666       2023-04-25 15:22:27
##  7 25e8962b 5e135a29            4881 FALSE  666       2023-04-14 11:24:22
##  8 25e8962b 35ed1bd3            1011 FALSE  666       2023-02-14 14:17:28
##  9 25e8962b eee54f9a            1163 FALSE  666       2023-02-27 13:23:26
## 10 25e8962b ae7dbbcc            3519 FALSE  666       2023-02-27 13:23:04
## # i 24 more rows
## # i 3 more variables: file_info$ctime <dttm>, $atime <dttm>, $exe <chr>
…
And it looks like this:

example_df_pro

## # A tibble: 34 x 3
##    paths    file_name info        
##    <chr>    <chr>     <list>      
##  1 77153098 0de5fce9  <df [1 x 7]>
##  2 77153098 725b41a5  <df [1 x 7]>
##  3 77153098 bf6c1f1f  <df [1 x 7]>
##  4 01e4bef1 48d12269  <df [1 x 7]>
##  5 7580e145 e308db7c  <df [1 x 7]>
##  6 25e8962b c5387cc9  <df [1 x 7]>
##  7 25e8962b 5e135a29  <df [1 x 7]>
##  8 25e8962b 35ed1bd3  <df [1 x 7]>
##  9 25e8962b eee54f9a  <df [1 x 7]>
## 10 25e8962b ae7dbbcc  <df [1 x 7]>
## # i 24 more rows

Similar to the first DF that we made but we no can see the size of the DF that is in each info record.

We can expand this by running it through unnest()

example_df_pro_unnested = example_df_pro %>%  
  unnest(cols = info)

## # A tibble: 34 x 9
##    paths    file_name  size isdir mode   mtime               ctime              
##    <chr>    <chr>     <dbl> <lgl> <octm> <dttm>              <dttm>             
##  1 77153098 0de5fce9   8621 FALSE 666    2023-08-10 10:47:50 2023-06-02 16:13:18
##  2 77153098 725b41a5  27857 FALSE 666    2023-06-02 16:12:40 2023-06-01 08:07:54
##  3 77153098 bf6c1f1f  12975 FALSE 666    2023-10-13 10:22:41 2023-10-13 10:22:40
##  4 01e4bef1 48d12269  11259 FALSE 666    2023-10-11 15:48:19 2023-05-31 09:36:56
##  5 7580e145 e308db7c   9891 FALSE 666    2023-03-16 10:23:23 2023-02-22 10:03:33
##  6 25e8962b c5387cc9  11155 FALSE 666    2023-04-25 15:22:27 2023-04-25 15:19:46
##  7 25e8962b 5e135a29   4881 FALSE 666    2023-04-14 11:24:22 2023-04-07 14:21:43
##  8 25e8962b 35ed1bd3   1011 FALSE 666    2023-02-14 14:17:28 2023-02-14 14:17:28
##  9 25e8962b eee54f9a   1163 FALSE 666    2023-02-27 13:23:26 2023-02-27 13:23:26
## 10 25e8962b ae7dbbcc   3519 FALSE 666    2023-02-27 13:23:04 2023-02-27 13:23:04
## # i 24 more rows
## # i 2 more variables: atime <dttm>, exe <chr>
…
